<svg width="73" height="24" viewBox="0 0 73 24" fill="none" xmlns="http://www.w3.org/2000/svg">
<path d="M1.13086 5.19284H15.0036V8.54148H4.47894V19.0656H1.13086V5.19284Z" fill="#10487A"/>
<path d="M15.0036 8.54144H18.3523V22.4142H4.47949V19.0661H15.0036V8.54144Z" fill="#10487A"/>
<path d="M30.4123 12.6228V5.19919H28.9894L26.4271 8.89414L23.8654 5.19919H22.4094V12.6228H23.8654V7.75529L25.9787 10.8368H26.8543L28.9563 7.75529V12.6228H30.4123Z" fill="#10487A"/>
<path d="M35.606 5.19913H34.1494V12.6227H35.606V5.19913Z" fill="#10487A"/>
<path d="M46.6247 11.886V10.2224L45.1687 10.4009V11.1715H40.8002V6.65033H45.1687V7.43164L46.6247 7.59947V5.94704C46.6247 5.5227 46.307 5.1994 45.8911 5.1994H40.0666C39.6619 5.1994 39.3442 5.5227 39.3442 5.94704V11.886C39.3442 12.2986 39.6619 12.6224 40.0666 12.6224H45.8911C46.307 12.6224 46.6247 12.2986 46.6247 11.886Z" fill="#10487A"/>
<path d="M57.6436 12.6225L55.4534 9.65329H56.91C57.3253 9.65329 57.6436 9.32943 57.6436 8.91688V5.94711C57.6436 5.52278 57.3253 5.19891 56.91 5.19891H50.3625V12.6225H51.8191V9.65329H53.6259L55.8037 12.6225H57.6436ZM56.187 8.2018H51.8197V6.64984H56.187V8.2018Z" fill="#10487A"/>
<path d="M68.6613 11.8857V5.94723C68.6613 5.5229 68.3442 5.19904 67.9283 5.19904H62.1038C61.6985 5.19904 61.3809 5.5229 61.3809 5.94723V11.8857C61.3809 12.2993 61.6985 12.6226 62.1038 12.6226H67.9283C68.3442 12.6226 68.6613 12.2993 68.6613 11.8857ZM67.2053 11.1711H62.8374V6.65052H67.2053V11.1711Z" fill="#10487A"/>
<path d="M29.6894 16.4343V14.9833H22.4089V22.4064H23.8649V19.4254H28.2329V17.9632H23.8649V16.4343H29.6894Z" fill="#10487A"/>
<path d="M38.9977 21.6698V15.7308C38.9977 15.3065 38.68 14.9832 38.2635 14.9832H32.4396C32.0349 14.9832 31.7178 15.3065 31.7178 15.7308V21.6698C31.7178 22.0829 32.0349 22.4062 32.4396 22.4062H38.2635C38.68 22.4062 38.9977 22.0829 38.9977 21.6698ZM37.5417 20.9553H33.1738V16.4347H37.5417V20.9553Z" fill="#10487A"/>
<path d="M48.8849 21.6698V20.0062L47.4289 20.1847V20.9553H43.061V16.4347H47.4289V17.216L48.8849 17.3827V15.7309C48.8849 15.3065 48.5678 14.9827 48.1513 14.9827H42.3274C41.9221 14.9827 41.605 15.3065 41.605 15.7309V21.6698C41.605 22.083 41.9221 22.4063 42.3274 22.4063H48.1513C48.5678 22.4063 48.8849 22.083 48.8849 21.6698Z" fill="#10487A"/>
<path d="M58.7723 21.6698V14.9827H57.3169V20.9553H52.9478V14.9827H51.4924V21.6698C51.4924 22.083 51.8096 22.4063 52.2142 22.4063H58.0387C58.4552 22.4063 58.7723 22.083 58.7723 21.6698Z" fill="#10487A"/>
<path d="M68.6597 21.6698V18.7113C68.6597 18.2988 68.3426 17.9637 67.9261 17.9637H62.8352V16.4347H67.2043V17.216L68.6597 17.3827V15.7309C68.6597 15.3065 68.3426 14.9827 67.9261 14.9827H62.1016C61.6969 14.9827 61.3804 15.3065 61.3804 15.7309V18.6782C61.3804 19.0913 61.6969 19.4258 62.1016 19.4258H67.2043V20.9553H62.8352V20.1847L61.3804 20.0062V21.6698C61.3804 22.083 61.6969 22.4063 62.1016 22.4063H67.9261C68.3426 22.4063 68.6597 22.083 68.6597 21.6698Z" fill="#10487A"/>
<path d="M70.294 4.73685C71.1618 4.73685 71.869 4.02963 71.869 3.16132C71.869 2.29301 71.1618 1.58578 70.294 1.58578C69.4252 1.58578 68.7185 2.29301 68.7185 3.16132C68.7185 4.02963 69.4252 4.73685 70.294 4.73685ZM70.294 4.43151C69.6345 4.43151 69.1024 3.89885 69.1024 3.16132C69.1024 2.42379 69.6345 1.89169 70.294 1.89169C70.9524 1.89169 71.4857 2.42379 71.4857 3.16132C71.4857 3.89885 70.9524 4.43151 70.294 4.43151ZM69.6873 4.04759H70.019V3.27975H70.2205L70.6825 4.04759H71.0226L70.5427 3.26628C70.8351 3.2399 71.0097 3.09172 71.0097 2.78638C71.0097 2.41088 70.7779 2.2627 70.3507 2.2627H69.6873V4.04759ZM70.019 2.51528H70.3154C70.486 2.51528 70.678 2.55064 70.678 2.76C70.678 2.99967 70.5073 3.02661 70.3114 3.02661H70.019V2.51528Z" fill="#10487A"/>
</svg>
